{
  "session": {
    "enabled": true,
    "client": "cookie",
    "key": "strapi.sid",
    "prefix": "strapi:sess:",
    "secretKeys": ["mySecretKey1", "mySecretKey2"],
    "httpOnly": true,
    "maxAge": 86400000,
    "overwrite": true,
    "signed": false,
    "rolling": false
  },
  "logger": {
    "level": "info",
    "exposeInContext": true,
    "requests": false
  },
  "parser": {
    "enabled": true,
    "multipart": true,
    "formidable": {
      "maxFileSize": 3221225472
    }
  }
}
