{
  "routes": [
    {
      "method": "GET",
      "path": "/ticket-codes",
      "handler": "ticket-code.find",
      "config": {
        "policies": []
      }
    },
    {
      "method": "GET",
      "path": "/ticket-codes/count",
      "handler": "ticket-code.count",
      "config": {
        "policies": []
      }
    },
    {
      "method": "GET",
      "path": "/ticket-codes/:id",
      "handler": "ticket-code.findOne",
      "config": {
        "policies": []
      }
    },
    {
      "method": "POST",
      "path": "/ticket-codes",
      "handler": "ticket-code.create",
      "config": {
        "policies": []
      }
    },
    {
      "method": "PUT",
      "path": "/ticket-codes/:id",
      "handler": "ticket-code.update",
      "config": {
        "policies": []
      }
    },
    {
      "method": "DELETE",
      "path": "/ticket-codes/:id",
      "handler": "ticket-code.delete",
      "config": {
        "policies": []
      }
    }
  ]
}
